\relax 
\@writefile{toc}{\contentsline {section}{\numberline {1}Performance results}{1}{}\protected@file@percent }
\@writefile{toc}{\contentsline {section}{\numberline {2}How to do the labs}{1}{}\protected@file@percent }
\newlabel{lang.sec}{{3}{2}}
\@writefile{toc}{\contentsline {section}{\numberline {3}Language requirements}{2}{}\protected@file@percent }
\@writefile{toc}{\contentsline {section}{\numberline {4}Debugging and help from teachers}{2}{}\protected@file@percent }
\@writefile{toc}{\contentsline {section}{\numberline {5}Lab requirements and questions}{3}{}\protected@file@percent }
\@writefile{toc}{\contentsline {section}{\numberline {6}Scala/Akka background}{14}{}\protected@file@percent }
\@writefile{toc}{\contentsline {section}{\numberline {7}Hints}{19}{}\protected@file@percent }
\gdef \@abspage@last{25}
